{
    "defaultSeverity": "error",
    "extends": [
        "tslint:recommended"
    ],
    "jsRules": {},
    "rules": {
        "no-console": false,
        "no-var-requires": false,
        "no-trailing-whitespace": false,
        "prefer-const": false,
        "trailing-comma": false
    },
    "rulesDirectory": []
}